…
    pdf_2x04 <- pdf_text("data/parks-and-recreation-2x04-practice-date-2009.pdf")
    pdf_2x04 <- pdf_2x04[3:36] 
    script_2x04 <- clean_pr_script(pdf_2x04, "2x04 The Practice Date")

    #binding them all together:
    script <- bind_rows(script_1x02, script_2x02, script_2x04, script_2x07,
                        script_3x05, script_3x07)
    script

Doing all that will give a dataframe of 1840 lines split by character:

    ## # A tibble: 1,841 x 3
    ##    episode         speaker text                                           
    ##    <chr>           <chr>   <chr>                                          
    ##  1 1x02 Canvassing LESLIE  Hello, Donna. I have the conference room booke~
    ##  2 1x02 Canvassing DONNA   Yup.                                           
    ##  3 1x02 Canvassing LESLIE  And the large meeting room for tomorrow night? 
    ##  4 1x02 Canvassing DONNA   Yes.   Stop asking.                            
    ##  5 1x02 Canvassing LESLIE  Tomorrow night is our very first public forum ~
    ##  6 1x02 Canvassing TOM     Wet Dream.                                     
    ##  7 1x02 Canvassing LESLIE  Really? Okay. Like the proud Wamapoke tribes o~
    ##  8 1x02 Canvassing ANN     Mm. Hearty breakfast.                          
    ##  9 1x02 Canvassing MARK    Its the most important meal of the day.       
    ## 10 1x02 Canvassing ANN     I think lunch is the most important--          
    ## # ... with 1,831 more rows
…
